…
#Combination

isnt_out_funs <- funs(
  z = isnt_out_z,
  mad = isnt_out_mad,
  tukey = isnt_out_tukey
)


diamonds %>% transmute_if(is.numeric, isnt_out_funs)
```

```
## # A tibble: 53,940 x 21
##    carat_z depth_z table_z price_z x_z   y_z   z_z   carat_mad depth_mad
##    <lgl>   <lgl>   <lgl>   <lgl>   <lgl> <lgl> <lgl> <lgl>     <lgl>    
##  1 T       T       T       T       T     T     T     T         T        
##  2 T       T       T       T       T     T     T     T         T        
##  3 T       F       F       T       T     T     T     T         F        
##  4 T       T       T       T       T     T     T     T         T        
##  5 T       T       T       T       T     T     T     T         T        
##  6 T       T       T       T       T     T     T     T         T        
##  7 T       T       T       T       T     T     T     T         T        
##  8 T       T       T       T       T     T     T     T         T        
##  9 T       T       T       T       T     T     T     T         F        
## 10 T       T       T       T       T     T     T     T         T        
## # ... with 53,930 more rows, and 12 more variables: table_mad <lgl>,
## #   price_mad <lgl>, x_mad <lgl>, y_mad <lgl>, z_mad <lgl>, carat_tukey
## #   <lgl>, depth_tukey <lgl>, table_tukey <lgl>, price_tukey <lgl>,
## #   x_tukey <lgl>, y_tukey <lgl>, z_tukey <lgl>
```

```r
diamonds %>%
  transmute(maha = maha_dist(.)) %>%
  transmute_at(vars(maha = maha), isnt_out_funs)
```

```
## # A tibble: 53,940 x 3
##    maha_z maha_mad maha_tukey
##    <lgl>  <lgl>    <lgl>     
##  1 T      T        T         
##  2 T      F        F         
##  3 T      F        F         
##  4 T      T        T         
##  5 T      T        T         
##  6 T      T        T         
##  7 T      T        T         
##  8 T      T        T         
##  9 T      F        F         
## 10 T      F        F         
## # ... with 53,930 more rows
```
…
compute_group_non_outliers <- . %>%
  # Compute per group mean values of columns
  group_by(group) %>%
  summarise_if(is.numeric, mean) %>%
  ungroup() %>%
  # Detect outliers among groups
  mutate_if(is.numeric, isnt_out_funs) %>%
  # Remove unnecessary columns
  select_if(Negate(is.numeric))

data_tbl %>% compute_group_non_outliers()
```

```
## # A tibble: 276 x 22
##    group       carat_z depth_z table_z price_z x_z   y_z   z_z   carat_mad
##    <chr>       <lgl>   <lgl>   <lgl>   <lgl>   <lgl> <lgl> <lgl> <lgl>    
##  1 Fair_D_I1   F       T       T       T       T     T     T     F        
##  2 Fair_D_IF   T       T       T       T       T     T     T     T        
##  3 Fair_D_SI1  T       T       T       T       T     T     T     T        
##  4 Fair_D_SI2  T       T       T       T       T     T     T     T        
##  5 Fair_D_VS1  T       T       T       T       T     T     T     T        
##  6 Fair_D_VS2  T       T       T       T       T     T     T     T        
##  7 Fair_D_VVS1 T       T       F       T       T     T     T     T        
##  8 Fair_D_VVS2 T       T       T       T       T     T     T     T        
##  9 Fair_E_I1   T       F       T       T       T     T     T     T        
## 10 Fair_E_SI1  T       T       T       T       T     T     T     T        
## # ... with 266 more rows, and 13 more variables: depth_mad <lgl>,
## #   table_mad <lgl>, price_mad <lgl>, x_mad <lgl>, y_mad <lgl>, z_mad
## #   <lgl>, carat_tukey <lgl>, depth_tukey <lgl>, table_tukey <lgl>,
## #   price_tukey <lgl>, x_tukey <lgl>, y_tukey <lgl>, z_tukey <lgl>
```
…
```r
outliers %>%
  count(pack, rule, sort = TRUE)
```

```
## # A tibble: 37 x 3
##    pack   rule            n
##    <chr>  <chr>       <int>
##  1 maha   maha_mad     6329
##  2 maha   maha_tukey   5511
##  3 column price_mad    5386
##  4 column price_tukey  3540
##  5 column table_mad    2560
##  6 column depth_tukey  2545
##  7 column depth_mad    2261
##  8 column carat_tukey  1889
##  9 column price_z      1206
## 10 group  price_tukey  1146
## # ... with 27 more rows
```
…
```r
#Based on those plots we see the complicated nature of "strong outliers". They are not necessary located "on the edge" of two-dimensional scatter plots, but most extreme cases are tagged as outliers.
#Also one interesting observation: most outliers are concentrated in the combination of "Fair" cut, "J" colour and "I1" clarity which are worst options among their features. The reason of this effect is group-based definitions of non-outliers which tagged certain groups more than others:
  

breaker_report %>%
  filter(pack == "group") %>%
  count(var, sort = TRUE) %>%
  print(n = 10)
```

```
## # A tibble: 47 x 2
##    var             n
##    <chr>       <int>
##  1 Fair_D_I1       7
##  2 Fair_J_I1       7
##  3 Fair_H_VVS1     6
##  4 Ideal_J_I1      6
##  5 Fair_J_VVS1     5
##  6 Fair_G_VVS1     4
##  7 Fair_D_VVS1     3
##  8 Fair_E_I1       3
##  9 Fair_F_I1       3
## 10 Fair_H_I1       3
## # ... with 37 more rows
```
…
